{
	"info": {
		"_postman_id": "7ddf3308-d9e0-44c8-8634-49b0a788bb11",
		"name": "EcommerceAPI- CAPSTONE 2",
		"schema": "https://schema.getpostman.com/json/collection/v2.1.0/collection.json"
	},
	"item": [
		{
			"name": "Admin",
			"item": [
				{
					"name": "Admin Add/Create Product",
					"request": {
						"method": "POST",
						"header": [],
						"url": {
							"raw": "localhost:3001/products/addProduct",
							"host": [
								"localhost"
							],
							"port": "3001",
							"path": [
								"products",
								"addProduct"
							]
						}
					},
					"response": []
				},
				{
					"name": "Admin Update Product",
					"request": {
						"method": "PUT",
						"header": [],
						"url": {
							"raw": "localhost:3001/products/63d10e9c28b94071469d0e48",
							"host": [
								"localhost"
							],
							"port": "3001",
							"path": [
								"products",
								"63d10e9c28b94071469d0e48"
							]
						}
					},
					"response": []
				},
				{
					"name": "Admin Archive Product",
					"request": {
						"auth": {
							"type": "bearer",
							"bearer": [
								{
									"key": "token",
									"value": "eyJhbGciOiJIUzI1NiIsInR5cCI6IkpXVCJ9.eyJpZCI6IjYzZDEwYzY4MjhiOTQwNzE0NjlkMGUzMyIsImVtYWlsIjoiSm9obmRvZUBnbWFpbC5jb20iLCJpc0FkbWluIjpmYWxzZSwiaWF0IjoxNjc0NjQ2MTgwfQ.8iwJf223IQEQL4QFO4XvZR7nsNI4PocrjzEIbO4XgRo",
									"type": "string"
								}
							]
						},
						"method": "PUT",
						"header": [],
						"body": {
							"mode": "raw",
							"raw": "",
							"options": {
								"raw": {
									"language": "json"
								}
							}
						},
						"url": {
							"raw": "localhost:3001/products/archive/",
							"host": [
								"localhost"
							],
							"port": "3001",
							"path": [
								"products",
								"archive",
								""
							]
						}
					},
					"response": []
				},
				{
					"name": "Admin Unarchive Product",
					"request": {
						"method": "PUT",
						"header": [],
						"url": {
							"raw": "localhost:3001/products/unarchive/",
							"host": [
								"localhost"
							],
							"port": "3001",
							"path": [
								"products",
								"unarchive",
								""
							]
						}
					},
					"response": []
				},
				{
					"name": "Admin Retrieve all Product",
					"request": {
						"method": "GET",
						"header": []
					},
					"response": []
				},
				{
					"name": "Admin User Auth Change",
					"request": {
						"method": "GET",
						"header": []
					},
					"response": []
				},
				{
					"name": "Admin Retrieve All User Details",
					"request": {
						"method": "GET",
						"header": []
					},
					"response": []
				},
				{
					"name": "Admin Retrieve All Orders",
					"request": {
						"method": "GET",
						"header": [],
						"url": {
							"raw": "localhost:3001/users/orderDetails",
							"host": [
								"localhost"
							],
							"port": "3001",
							"path": [
								"users",
								"orderDetails"
							]
						}
					},
					"response": []
				}
			]
		},
		{
			"name": "UserRegistration",
			"request": {
				"method": "POST",
				"header": [],
				"url": {
					"raw": "localhost:3001/users/register",
					"host": [
						"localhost"
					],
					"port": "3001",
					"path": [
						"users",
						"register"
					]
				}
			},
			"response": []
		},
		{
			"name": "UserAuthentication-Login",
			"request": {
				"method": "POST",
				"header": [],
				"url": {
					"raw": "localhost:3001/users/login",
					"host": [
						"localhost"
					],
					"port": "3001",
					"path": [
						"users",
						"login"
					]
				}
			},
			"response": []
		},
		{
			"name": "User Retrieve All Active Product",
			"request": {
				"method": "GET",
				"header": [],
				"url": {
					"raw": "localhost:3001/products/getActive",
					"host": [
						"localhost"
					],
					"port": "3001",
					"path": [
						"products",
						"getActive"
					]
				}
			},
			"response": []
		},
		{
			"name": "User Get Single Product",
			"request": {
				"method": "POST",
				"header": [],
				"url": {
					"raw": "localhost:3001/product",
					"host": [
						"localhost"
					],
					"port": "3001",
					"path": [
						"product"
					]
				}
			},
			"response": []
		},
		{
			"name": "Retrieve User Details",
			"request": {
				"auth": {
					"type": "bearer",
					"bearer": [
						{
							"key": "token",
							"value": "eyJhbGciOiJIUzI1NiIsInR5cCI6IkpXVCJ9.eyJpZCI6IjYzZDEwYzI3MjhiOTQwNzE0NjlkMGUzMCIsImVtYWlsIjoiQWRtaW5lbWFpbEBnbWFpbC5jb20iLCJpc0FkbWluIjp0cnVlLCJpYXQiOjE2NzQ2NDQ1OTJ9.Y3Ky2nqtkf_zmAPDZxL5ln5tmgTkOFgnowz4KuU4OLI",
							"type": "string"
						}
					]
				},
				"method": "POST",
				"header": [],
				"body": {
					"mode": "raw",
					"raw": "{\r\n    \"id\": \"63d10c6828b94071469d0e33\"\r\n}",
					"options": {
						"raw": {
							"language": "json"
						}
					}
				},
				"url": {
					"raw": "localhost:3001/users/details",
					"host": [
						"localhost"
					],
					"port": "3001",
					"path": [
						"users",
						"details"
					]
				}
			},
			"response": []
		},
		{
			"name": "User Checkout",
			"request": {
				"method": "POST",
				"header": [],
				"body": {
					"mode": "raw",
					"raw": "{\r\n    \"productId\" : \"63d10e9c28b94071469d0e48\",\r\n    \"quantity\" : 2,\r\n    \"totalAmount\" :  199.98\r\n}",
					"options": {
						"raw": {
							"language": "json"
						}
					}
				},
				"url": {
					"raw": "localhost:3001/users/order",
					"host": [
						"localhost"
					],
					"port": "3001",
					"path": [
						"users",
						"order"
					]
				}
			},
			"response": []
		},
		{
			"name": "Retrieve Auth User Order",
			"request": {
				"auth": {
					"type": "bearer",
					"bearer": [
						{
							"key": "token",
							"value": "eyJhbGciOiJIUzI1NiIsInR5cCI6IkpXVCJ9.eyJpZCI6IjYzZDEwYzY4MjhiOTQwNzE0NjlkMGUzMyIsImVtYWlsIjoiSm9obmRvZUBnbWFpbC5jb20iLCJpc0FkbWluIjpmYWxzZSwiaWF0IjoxNjc0NjQ2MTgwfQ.8iwJf223IQEQL4QFO4XvZR7nsNI4PocrjzEIbO4XgRo",
							"type": "string"
						}
					]
				},
				"method": "POST",
				"header": [],
				"url": {
					"raw": "localhost:3001/users/orderDetails",
					"host": [
						"localhost"
					],
					"port": "3001",
					"path": [
						"users",
						"orderDetails"
					]
				}
			},
			"response": []
		},
		{
			"name": "Add To Cart",
			"request": {
				"auth": {
					"type": "bearer",
					"bearer": [
						{
							"key": "token",
							"value": "eyJhbGciOiJIUzI1NiIsInR5cCI6IkpXVCJ9.eyJpZCI6IjYzZDI1MGI2ODA2ZGE3Njk4YWMzYzRkMyIsImVtYWlsIjoiSmF6emFiYWRAZ21haWwuY29tIiwiaXNBZG1pbiI6dHJ1ZSwiaWF0IjoxNjc0NzMxNDUyfQ.6i8CpfRcho_jzXVf2kJZr46JPx78iVK6rNiSTulvdy8",
							"type": "string"
						}
					]
				},
				"method": "POST",
				"header": [],
				"body": {
					"mode": "raw",
					"raw": "{\r\n    \"productId\" : \"63d10e5d28b94071469d0e3a\",\r\n    \"quantity\" : 1\r\n}",
					"options": {
						"raw": {
							"language": "json"
						}
					}
				},
				"url": {
					"raw": "localhost:3001/users/addToCart",
					"host": [
						"localhost"
					],
					"port": "3001",
					"path": [
						"users",
						"addToCart"
					]
				}
			},
			"response": []
		},
		{
			"name": "Delete to Cart",
			"request": {
				"auth": {
					"type": "bearer",
					"bearer": [
						{
							"key": "token",
							"value": "eyJhbGciOiJIUzI1NiIsInR5cCI6IkpXVCJ9.eyJpZCI6IjYzZDI1MGI2ODA2ZGE3Njk4YWMzYzRkMyIsImVtYWlsIjoiSmF6emFiYWRAZ21haWwuY29tIiwiaXNBZG1pbiI6dHJ1ZSwiaWF0IjoxNjc0NzMxNDUyfQ.6i8CpfRcho_jzXVf2kJZr46JPx78iVK6rNiSTulvdy8",
							"type": "string"
						}
					]
				},
				"method": "POST",
				"header": [],
				"body": {
					"mode": "raw",
					"raw": "{\r\n    \"productId\" : \"63d10e5d28b94071469d0e3a\",\r\n    \"quantity\" : 1\r\n}",
					"options": {
						"raw": {
							"language": "json"
						}
					}
				},
				"url": {
					"raw": "localhost:3001/users/addToCart",
					"host": [
						"localhost"
					],
					"port": "3001",
					"path": [
						"users",
						"addToCart"
					]
				}
			},
			"response": []
		}
	]
}